{
    "enumTypes": [],
    "structTypes": [],
    "traitTypes": [],
    "classTypes": [{
            "superTypes": ["DataSet"],
            "hierarchicalMetaTypeName": "org.apache.atlas.typesystem.types.ClassType",
            "typeName": "hive_table",
            "typeDescription": null,
            "attributeDefinitions": [
				{
					"name": "acessesCounter",
					"dataTypeName": "int",
					"multiplicity": "optional",
					"isComposite": false,
					"isUnique": false,
					"isIndexable": false,
					"reverseAttributeName": null,
					"defaultValue": null,
					"description": null,
					"options": null
				},
				{
					"name": "scores",
					"dataTypeName": "double",
					"multiplicity": "optional",
					"isComposite": false,
					"isUnique": false,
					"isIndexable": false,
					"reverseAttributeName": null,
					"defaultValue": null,
					"description": null,
					"options": null
				},
				{
					"name": "typeOfTable",
					"dataTypeName": "string",
					"multiplicity": "optional",
					"isComposite": false,
					"isUnique": false,
					"isIndexable": false,
					"reverseAttributeName": null,
					"defaultValue": null,
					"description": null,
					"options": null
				},
				{
					"name": "objectType",
					"dataTypeName": "string",
					"multiplicity": "optional",
					"isComposite": false,
					"isUnique": false,
					"isIndexable": false,
					"reverseAttributeName": null,
					"defaultValue": null,
					"description": null,
					"options": null
				}                                
				]
        }]
}