{
    "enumTypes": [],
    "structTypes": [],
    "traitTypes": [],
    "classTypes": [{
            "superTypes": ["DataSet"],
            "hierarchicalMetaTypeName": "org.apache.atlas.typesystem.types.ClassType",
            "typeName": "InterStatistics",
            "typeDescription": null,
            "attributeDefinitions": [
                {
                    "name": "columnMain",
                    "dataTypeName": "hive_column",
                    "multiplicity": "optional",
                    "isComposite": false,
                    "isUnique": false,
                    "isIndexable": false,
                    "reverseAttributeName": null
                },
				{
                    "name": "columnToCompare",
                    "dataTypeName": "hive_column",
                    "multiplicity": "optional",
                    "isComposite": false,
                    "isUnique": false,
                    "isIndexable": false,
                    "reverseAttributeName": null
                },
				{
                    "name": "headerSimilarity",
                    "dataTypeName": "float",
                    "multiplicity": "optional",
                    "isComposite": false,
                    "isUnique": false,
                    "isIndexable": false,
                    "reverseAttributeName": null
                },
				{
                    "name": "contentSimilarity",
                    "dataTypeName": "float",
                    "multiplicity": "optional",
                    "isComposite": false,
                    "isUnique": false,
                    "isIndexable": false,
                    "reverseAttributeName": null
                },
				{
                    "name": "thresholdFilter",
                    "dataTypeName": "float",
                    "multiplicity": "optional",
                    "isComposite": false,
                    "isUnique": false,
                    "isIndexable": false,
                    "reverseAttributeName": null
                },
				{
                    "name": "table",
                    "dataTypeName": "array<hive_table>",
                    "multiplicity": "optional",
                    "isComposite": false,
                    "isUnique": false,
                    "isIndexable": false,
                    "reverseAttributeName": null
                }
				]
        }]
}