{
    "enumTypes": [],
    "structTypes": [],
    "traitTypes": [],
    "classTypes": [{
            "superTypes": ["DataSet"],
            "hierarchicalMetaTypeName": "org.apache.atlas.typesystem.types.ClassType",
            "typeName": "Job",
            "typeDescription": null,
            "attributeDefinitions": [
                {
                    "name": "startTime",
                    "dataTypeName": "date",
                    "multiplicity": "optional",
                    "isComposite": false,
                    "isUnique": false,
                    "isIndexable": false,
                    "reverseAttributeName": null
                },
                {
                    "name": "endTime",
                    "dataTypeName": "date",
                    "multiplicity": "optional",
                    "isComposite": false,
                    "isUnique": false,
                    "isIndexable": false,
                    "reverseAttributeName": null
                },
                {
                    "name": "duration",
                    "dataTypeName": "float",
                    "multiplicity": "optional",
                    "isComposite": false,
                    "isUnique": false,
                    "isIndexable": false,
                    "reverseAttributeName": null
                },
				{
                    "name": "sparkUser",
                    "dataTypeName": "string",
                    "multiplicity": "optional",
                    "isComposite": false,
                    "isUnique": false,
                    "isIndexable": false,
                    "reverseAttributeName": null
                },
				{
                    "name": "completed",
                    "dataTypeName": "boolean",
                    "multiplicity": "optional",
                    "isComposite": false,
                    "isUnique": false,
                    "isIndexable": false,
                    "reverseAttributeName": null
                }
				]
        }]
}